R For Molecular Medicine -
…
trial$marker_corrected <- trial$marker

for(i in 1:nrow(trial)) {
  if (is.na(trial$marker[i])) {
    trial$marker_corrected[i] <- NA
  } else if (trial$marker[i] < 0.2) {
    trial$marker_corrected[i] <- 0.1
  }
}

And we can see that our new variable has the value 0.1 for all cases where marker was <0.2:

trial[trial$marker < 0.2, c("marker", "marker_corrected")]

# A tibble: 54 × 2
   marker marker_corrected
    <dbl>            <dbl>
 1  0.16               0.1
 2  0.144              0.1
 3  0.06               0.1
 4  0.128              0.1
 5  0.157              0.1
 6  0.066              0.1
 7  0.096              0.1
 8  0.105              0.1
 9  0.043              0.1
10  0.105              0.1
# ℹ 44 more rows
