tools-manipulate-dataframes – R For Molecular Medicine
…
df_new <-
  df |> 
  mutate(
    log_nodal_ratio = log(nodal_ratio)
  )

The first argument to mutate() is the name of the dataframe, which comes from the LHS of the previous pipe (i.e. “df”). The second argument contains the name of the new variable, then an equal sign (“=”), then the value to be assigned to the new variable. In this case the value we are assigning to the new variable “log_nodal_ratio” is the natural log (log()) of the current column “nodal_ratio”.

Now we can see the first few values of these two columns as:

df_new |> 
  select(nodal_ratio, log_nodal_ratio)

# A tibble: 3,000 × 2
   nodal_ratio log_nodal_ratio
         <dbl>           <dbl>
 1       0.159          -1.84 
 2       0.157          -1.85 
 3       0.190          -1.66 
 4       0.377          -0.975
 5       0.608          -0.498
 6       0.291          -1.23 
 7       0.497          -0.698
 8       0.466          -0.764
 9       0.209          -1.56 
10       0.423          -0.859
# ℹ 2,990 more rows

We can also add multiple new columns, separated by commas, for example the log of nodal_ratio and also the square of tumor_size_cm:

df_new <-
  df |> 
  mutate(
    log_nodal_ratio = log(nodal_ratio),
    tumor_size_cm_squared = tumor_size_cm^2
  )

df_new |> 
  select(nodal_ratio, log_nodal_ratio, tumor_size_cm, tumor_size_cm_squared)

# A tibble: 3,000 × 4
   nodal_ratio log_nodal_ratio tumor_size_cm tumor_size_cm_squared
         <dbl>           <dbl>         <dbl>                 <dbl>
 1       0.159          -1.84          3.57                 12.7  
 2       0.157          -1.85          1.43                  2.05 
 3       0.190          -1.66         NA                    NA    
 4       0.377          -0.975         3.49                 12.2  
 5       0.608          -0.498         1.97                  3.89 
 6       0.291          -1.23          0.696                 0.484
 7       0.497          -0.698         2.93                  8.56 
 8       0.466          -0.764         1.10                  1.22 
 9       0.209          -1.56          1.25                  1.55 
10       0.423          -0.859         3.12                  9.73 
# ℹ 2,990 more rows
…
Sort by row

There may be times when we want to sort our dataframe according to a value in a row. For example, maybe we want to sort our dataframe from youngest to oldest age. We can do this using the arrange() function from the {dplyr} package:

df_new <-
  df |> 
  arrange(age_dx_yrs)

df_new |> 
  select(age_dx_yrs)

# A tibble: 3,000 × 1
   age_dx_yrs
        <dbl>
 1       18.2
 2       19.6
 3       19.9
 4       20.1
 5       21.0
 6       21.3
 7       21.3
 8       22.0
 9       22.1
10       22.3
# ℹ 2,990 more rows
…
